{
  "users": {
    "data": [
      {
        "id": 20,
        "displayName": "Alexandr Mikhailov",
        "accountId": "557058:1f03f79d-dc7e-49a1-b03e-7b1de1f8b0ec",
        "createdAt": "2020-08-27 10:51:37",
        "updatedAt": "2021-03-08 14:12:24",
        "iconUri": "https://avatar-management--avatars.us-west-2.prod.public.atl-paas.net/557058:1f03f79d-dc7e-49a1-b03e-7b1de1f8b0ec/295e7ed8-d1c1-4ed9-b22a-bce64f4effda/48",
        "timezone": "Europe/Madrid",
        "active": 1,
        "createdBy": 69,
        "updatedBy": null,
        "showAppIntro": true,
        "showUserAccessIntro": false,
        "capture2Screens": false,
        "captureMouseClick": false,
        "captureKeyPresses": false,
        "capturePhotoShot": false,
        "contract": "Yearly"
      },
      {
        "id": 53,
        "name": null,
        "email": null,
        "emailVerifiedAt": null,
        "createdAt": "2020-09-03 17:34:47",
        "updatedAt": "2021-03-11 14:17:55",
        "accountId": "557058:26dcfcb4-1bb8-4d92-8430-5ddd5dd80085",
        "displayName": "Alena Mekhnina - Marcalle",
        "iconUri": "https://avatar-management--avatars.us-west-2.prod.public.atl-paas.net/557058:26dcfcb4-1bb8-4d92-8430-5ddd5dd80085/6bb4f69d-aa09-4613-9eb0-bf4801e305b0/48",
        "timezone": "Europe/Madrid",
        "active": 1,
        "createdBy": 53,
        "updatedBy": null,
        "googleToken": null,
        "showAppIntro": true,
        "showUserAccessIntro": false,
        "capture2Screens": true,
        "captureMouseClick": true,
        "captureKeyPresses": true,
        "capturePhotoShot": true,
        "manualTime": true,
        "contract": "Monthly"
      },
      {
        "id": 54,
        "name": null,
        "email": null,
        "emailVerifiedAt": null,
        "createdAt": "2020-09-03 17:34:47",
        "updatedAt": "2021-03-12 15:09:42",
        "accountId": "5e9423431302f40c0ed0d8b1",
        "displayName": "Hours Reports for Jira",
        "iconUri": "https://secure.gravatar.com/avatar/55a5ab06dc5ae73e4cc8f8728177548e?d=https%3A%2F%2Favatar-management--avatars.us-west-2.prod.public.atl-paas.net%2Finitials%2FHJ-6.png",
        "timezone": "UTC",
        "active": 1,
        "createdBy": 53,
        "updatedBy": null,
        "googleToken": null,
        "showAppIntro": true,
        "showUserAccessIntro": false,
        "capture2Screens": false,
        "captureMouseClick": true,
        "captureKeyPresses": true,
        "capturePhotoShot": true,
        "contract": "Yearly",
        "manualTime": true
      },
      {
        "id": 64,
        "name": null,
        "email": null,
        "emailVerifiedAt": null,
        "createdAt": "2020-09-30 13:02:47",
        "updatedAt": "2021-03-12 15:09:42",
        "accountId": "557058:08bb8132-3213-453c-83ae-67fc47399379",
        "displayName": "Максим Комарницкий",
        "iconUri": "https://avatar-management--avatars.us-west-2.prod.public.atl-paas.net/557058:08bb8132-3213-453c-83ae-67fc47399379/0e41d599-fb52-4c3b-900a-4a4390866180/48",
        "timezone": "UTC",
        "active": 1,
        "createdBy": 53,
        "updatedBy": null,
        "googleToken": null,
        "showAppIntro": true,
        "showUserAccessIntro": false,
        "capture2Screens": false,
        "captureMouseClick": false,
        "captureKeyPresses": false,
        "capturePhotoShot": true,
        "contract": "Hourly",
        "manualTime": true
      },
      {
        "id": 65,
        "name": null,
        "email": null,
        "emailVerifiedAt": null,
        "createdAt": "2020-09-30 13:02:47",
        "updatedAt": "2021-03-11 14:17:55",
        "accountId": "5e9328816b01320c418eb54f",
        "displayName": "Alexandr Mikhailov",
        "iconUri": "https://avatar-management--avatars.us-west-2.prod.public.atl-paas.net/5e9328816b01320c418eb54f/6a55290b-5ec2-4b65-939c-9a13e4e944a6/48",
        "timezone": "UTC",
        "active": 1,
        "createdBy": 53,
        "updatedBy": null,
        "googleToken": null,
        "showAppIntro": true,
        "showUserAccessIntro": false,
        "capture2Screens": true,
        "captureMouseClick": true,
        "captureKeyPresses": true,
        "capturePhotoShot": true,
        "contract": "Hourly"
      },
      {
        "id": 69,
        "name": null,
        "email": null,
        "emailVerifiedAt": null,
        "createdAt": "2020-12-11 12:36:18",
        "updatedAt": "2021-03-12 15:09:42",
        "accountId": "5e2f2cca4fc4e10e7c2603ac",
        "displayName": "Enerta Allko",
        "iconUri": "https://avatar-management--avatars.us-west-2.prod.public.atl-paas.net/5e2f2cca4fc4e10e7c2603ac/c9ef4117-de40-479e-8afd-8a7ec2770897/48",
        "timezone": "America/New_York",
        "active": 1,
        "createdBy": 53,
        "updatedBy": null,
        "googleToken": null,
        "showAppIntro": true,
        "showUserAccessIntro": false,
        "capture2Screens": false,
        "captureMouseClick": true,
        "captureKeyPresses": true,
        "capturePhotoShot": true,
        "contract": "Hourly"
      },
      {
        "id": 71,
        "name": null,
        "email": null,
        "emailVerifiedAt": null,
        "createdAt": "2021-01-21 07:08:09",
        "updatedAt": "2021-01-21 07:08:09",
        "accountId": "5d84c7ebca73870d9c90ebf5",
        "displayName": "Accounting Software Addon",
        "iconUri": "https://secure.gravatar.com/avatar/e076e3986e33c5cf36a94620ba9b8c29?d=https%3A%2F%2Favatar-management--avatars.us-west-2.prod.public.atl-paas.net%2Finitials%2FAA-6.png",
        "timezone": "UTC",
        "active": 1,
        "createdBy": null,
        "updatedBy": null,
        "googleToken": null,
        "showAppIntro": true,
        "showUserAccessIntro": false,
        "capture2Screens": false,
        "captureMouseClick": true,
        "captureKeyPresses": true,
        "capturePhotoShot": true,
        "contract": "Hourly"
      },
      {
        "id": 72,
        "name": null,
        "email": null,
        "emailVerifiedAt": null,
        "createdAt": "2021-01-28 14:33:32",
        "updatedAt": "2021-03-15 10:38:02",
        "accountId": "5a985f69790c3a32f754a99d",
        "displayName": "Joshwa Marcalle",
        "iconUri": "https://avatar-management--avatars.us-west-2.prod.public.atl-paas.net/5a985f69790c3a32f754a99d/b05e7e1b-56e5-4a80-bf1c-91735694eca3/48",
        "timezone": "America/New_York",
        "active": 1,
        "createdBy": 20,
        "updatedBy": null,
        "googleToken": null,
        "showAppIntro": true,
        "showUserAccessIntro": false,
        "capture2Screens": false,
        "captureMouseClick": true,
        "captureKeyPresses": true,
        "capturePhotoShot": true,
        "contract": "Hourly"
      },
      {
        "id": 121,
        "name": null,
        "email": null,
        "emailVerifiedAt": null,
        "createdAt": "2021-03-12 15:09:42",
        "updatedAt": "2021-03-12 15:09:42",
        "accountId": "5eb2a9fb06a3eb0b7e14f20d",
        "displayName": "Accounting Software Addon",
        "iconUri": "https://secure.gravatar.com/avatar/26cc1af69237ba82d61dfdef52293417?d=https%3A%2F%2Favatar-management--avatars.us-west-2.prod.public.atl-paas.net%2Finitials%2FAA-4.png",
        "timezone": "UTC",
        "active": 1,
        "createdBy": 53,
        "updatedBy": null,
        "googleToken": null,
        "showAppIntro": true,
        "showUserAccessIntro": false,
        "capture2Screens": false,
        "captureMouseClick": true,
        "captureKeyPresses": true,
        "capturePhotoShot": true,
        "contract": "Hourly"
      },
      {
        "id": 122,
        "name": null,
        "email": null,
        "emailVerifiedAt": null,
        "createdAt": "2021-03-12 15:09:42",
        "updatedAt": "2021-03-12 15:09:42",
        "accountId": "5cf8c29c4ddcda0e7cb96502",
        "displayName": "Recursive tasks",
        "iconUri": "https://secure.gravatar.com/avatar/1e28db35278508df2d40d1fe5b9e3483?d=https%3A%2F%2Favatar-management--avatars.us-west-2.prod.public.atl-paas.net%2Finitials%2FRT-6.png",
        "timezone": "UTC",
        "active": 1,
        "createdBy": 53,
        "updatedBy": null,
        "googleToken": null,
        "showAppIntro": true,
        "showUserAccessIntro": false,
        "capture2Screens": false,
        "captureMouseClick": true,
        "captureKeyPresses": true,
        "capturePhotoShot": true,
        "contract": "Hourly"
      },
    ],
    "meta": {
      "self": "/users",
      "currentPage": 1,
      "lastPage": 2,
      "perPage": 50,
      "total": 54
    }
  },
  "comments": [
    {
      "id": 1,
      "body": "some comment",
      "postId": 1
    }
  ],
  "profile": {
    "name": "typicode"
  },
  "settings": {
    "showSettingsScreen": 1618890386372
  }
}